{
    "name": "Moin Soft Dark",
    "type": "dark",
    "colors": {
        "activityBarBadge.background": "#161616",
        "editor.background": "#161616",
        "input.background": "#161616",
        "panel.background": "#161616",
        "statusBar.noFolderBackground": "#161616",
        "tab.activeBackground": "#161616",
        "tab.activeBorder": "#161616",
        "tab.unfocusedActiveBorder": "#161616",

        "statusBar.debuggingBackground": "#fff4",
        "quickInput.background": "#1a1a1a",
        "notifications.background": "#1a1a1a",

        "activityBar.background": "#1a1a1a",
        "editorGroupHeader.noTabsBackground": "#1a1a1a",
        "editorGroupHeader.tabsBackground": "#1a1a1a",
        "tab.hoverBackground": "#fff4",
        "sideBar.background": "#1a1a1a",
        "button.background": "#242424",
        "tab.inactiveBackground": "#1a1a1a",
        "sideBarSectionHeader.background": "#242424",
        "statusBar.background": "#242424",
        "editorWidget.background": "#1a1a1a",
        "editorWidget.resizeBorder": "#242424",
        "editorSuggestWidget.border": "#000",
        "activityBar.activeBackground": "#fff2",
        "list.focusBackground": "#fff2",
        "list.hoverBackground": "#fff2",
        "list.inactiveSelectionBackground": "#fff2",

        "editor.selectionHighlightBackground": "#fff4",

        "editorIndentGuide.background": "#fff2",
        "editorRuler.foreground": "#fff4",
        "editorIndentGuide.activeBackground": "#fff4",

        "scrollbar.shadow": "#0004",

        "editor.inactiveSelectionBackground": "#fff2",
        "editor.lineHighlightBackground": "#fff2",
        "editor.hoverHighlightBackground": "#fff2",

        "editor.selectionBackground": "#fff4",
        "selection.background": "#fff4",

        "list.activeSelectionBackground": "#fff4",

        "activityBar.inactiveForeground": "#fff9",
        "activityBar.activeBorder": "#fffb",
        "tab.inactiveForeground": "#fffb",

        "focusBorder": "#fffb",

        "activityBar.foreground": "#fff",
        "list.activeSelectionForeground": "#fff",
        "foreground": "#fff",
        "activityBarBadge.foreground": "#fff",
        "badge.foreground": "#fff",
        "button.foreground": "#fff",
        "editor.foreground": "#fff",
        "input.foreground": "#fff",
        "input.placeholderForeground": "#fff",
        "sideBar.foreground": "#fff",
        "statusBar.foreground": "#fff",
        "tab.activeForeground": "#fff",

        "contrastBorder": "#000",
        "focusBorder": "#000",

        "activityBar.activeFocusBorder": "#000",
        "sideBar.border": "#000",
        "sideBarSectionHeader.border": "#000",
        "statusBar.border": "#000",

        "searchEditor.textInputBorder": "#000",
        "titleBar.border": "#000",
        "editorGroupHeader.border": "#000",
        "activityBar.border": "#000",
        "checkbox.border": "#000",
        "dropdown.border": "#000",
        "editorGroup.border": "#000",
        "editorGroupHeader.tabsBorder": "#000",
        "editorWidget.border": "#000",
        "input.border": "#000",
        "inputOption.activeBorder": "#000",
        "menubar.selectionBorder": "#000",
        "menu.border": "#000",
        "menu.selectionBorder": "#000",
        "notificationCenter.border": "#000",
        "notifications.border": "#000",
        "notificationToast.border": "#000",
        "panel.border": "#000",
        "panelInput.border": "#000",
        "settings.checkboxBorder": "#000",
        "settings.dropdownBorder": "#000",
        "settings.dropdownListBorder": "#000",
        "settings.textInputBorder": "#000",
        "tab.activeBorderTop": "#000",
        "tab.border": "#000",
        "tab.unfocusedActiveBorderTop": "#000",

        "gitDecoration.addedResourceForeground": "#8ec",
        "gitDecoration.conflictingResourceForeground": "#f00",
        "gitDecoration.deletedResourceForeground": "#c00",
        "gitDecoration.ignoredResourceForeground": "#fffb",
        "gitDecoration.modifiedResourceForeground": "#ec0",
        "gitDecoration.untrackedResourceForeground": "#6ba",
        "gitDecoration.submoduleResourceForeground": "#9cf",

        "editorGutter.addedBackground": "#6ba",
        "editorGutter.deletedBackground": "#c00",
        "editorGutter.modifiedBackground": "#9cf",

        "terminal.background": "#161616",
        "terminal.foreground": "#fff",
        "terminalCursor.background": "#161616",
        "terminalCursor.foreground": "#fff",
        "terminal.ansiBlack": "#222",
        "terminal.ansiRed": "#c00",
        "terminal.ansiGreen": "#6ba",
        "terminal.ansiYellow": "#ec0",
        "terminal.ansiBlue": "#9cf",
        "terminal.ansiMagenta": "#d9f",
        "terminal.ansiCyan": "#4bb",
        "terminal.ansiWhite": "#ddd",
        "terminal.ansiBrightBlack": "#333",
        "terminal.ansiBrightRed": "#f00",
        "terminal.ansiBrightGreen": "#8ec",
        "terminal.ansiBrightYellow": "#fe0",
        "terminal.ansiBrightBlue": "#bdf",
        "terminal.ansiBrightMagenta": "#faf",
        "terminal.ansiBrightCyan": "#5ee",
        "terminal.ansiBrightWhite": "#f3f3f3"
    },
    "tokenColors": [
        {
            "scope": ["invalid"],
            "settings": { "foreground": "#e22", "fontStyle": "bold underline" }
        },
        {
            "scope": ["markup.inserted.diff"],
            "settings": { "foreground": "#6ba" }
        },
        {
            "scope": ["markup.deleted.diff"],
            "settings": { "foreground": "#c00" }
        },
        {
            "scope": [
                "string",
                "constant",
                "entity.name.import"
            ],
            "settings": { "foreground": "#bdf" }
        },
        {
            "scope": [
                "meta.paragraph",
                "string.unquoted.argument",
                "constant.other.option",
                "punctuation.definition.logical-expression",
                "punctuation.definition.dictionary",
                "punctuation.definition.array",
                "punctuation.definition.evaluation",
                "meta"
            ],
            "settings": { "foreground": "#fff" }
        },
        {
            "scope": [
                "keyword",
                "fenced_code.block.language",
                "punctuation.separator",
                "constant.character.escape",
                "constant.other.placeholder"
            ],
            "settings": { "foreground": "#ecf" }
        },
        {
            "scope": [
                "entity",
                "storage",
                "support",
                "markup.heading",
                "punctuation.definition.heading",
                "entity.name.section"
            ],
            "settings": { "foreground": "#cbf" }
        },
        {
            "scope": [
                "variable",
                "entity.name",
                "meta.attribute",
                "markup.inline.raw"
            ],
            "settings": { "foreground": "#9bf" }
        },
        {
            "scope": [
                "entity.name.function",
                "support.function",
                "meta.function-call",
                "meta.function",
                "entity.name.command"
            ],
            "settings": { "foreground": "#8ec" }
        },
        {
            "scope": [
                "comment",
                "punctuation.definition.comment"
            ],
            "settings": { "foreground": "#999" }
        },
        { "scope": "markup.underline", "settings": { "fontStyle": "underline" } },
        { "scope": "markup.italic", "settings": { "fontStyle": "italic" } },
        {
            "scope": "keyword.operator",
            "settings": { "fontStyle": "none", "foreground": "#fff" }
        },
        {
            "scope": [
                
                "strong",
                "emphasis",
                "markup.bold",
                "entity.name.type.org",
                "entity.name.function.org",
                "entity.other.attribute-name.org"
            ],
            "settings": { "fontStyle": "bold" }
        }
    ]
}
