{
    "name": "Moin Simple Light",
    "type": "light",
    "colors": {
        "activityBarBadge.background": "#fff",
        "editor.background": "#fff",
        "input.background": "#fff",
        "panel.background": "#fff",
        "statusBar.noFolderBackground": "#fff",
        "tab.activeBackground": "#fff",
        "tab.activeBorder": "#fff",
        "tab.unfocusedActiveBorder": "#fff",

        "statusBar.debuggingBackground": "#ee7",
        "quickInput.background": "#fafafa",
        "notifications.background": "#fafafa",

        "activityBar.background": "#fafafa",
        "editorGroupHeader.noTabsBackground": "#fafafa",
        "editorGroupHeader.tabsBackground": "#fafafa",
        "tab.hoverBackground": "#ee7",
        "sideBar.background": "#fafafa",
        "button.background": "#ddd",
        "tab.inactiveBackground": "#fafafa",
        "sideBarSectionHeader.background": "#ddd",
        "statusBar.background": "#ddd",
        "editorWidget.background": "#fafafa",
        "editorWidget.resizeBorder": "#ddd",
        "editorSuggestWidget.border": "#777",
        "activityBar.activeBackground": "#0002",
        "list.focusBackground": "#0002",
        "list.hoverBackground": "#0001",
        "list.inactiveSelectionBackground": "#0001",

        "editor.selectionHighlightBackground": "#0004",

        "editorIndentGuide.background": "#0002",
        "editorRuler.foreground": "#0004",
        "editorIndentGuide.activeBackground": "#0004",

        "scrollbar.shadow": "#0004",

        "editor.inactiveSelectionBackground": "#0001",
        "editor.lineHighlightBackground": "#0001",
        "editor.hoverHighlightBackground": "#0001",

        "editor.selectionBackground": "#ee7a",
        "selection.background": "#ee7a",

        "list.activeSelectionBackground": "#ee7",

        "activityBar.inactiveForeground": "#0009",
        "activityBar.activeBorder": "#0009",
        "tab.inactiveForeground": "#0009",

        "focusBorder": "#058",

        "activityBar.foreground": "#000",
        "list.activeSelectionForeground": "#000",
        "foreground": "#000",
        "activityBarBadge.foreground": "#000",
        "badge.foreground": "#000",
        "button.foreground": "#000",
        "editor.foreground": "#000",
        "input.foreground": "#000",
        "input.placeholderForeground": "#000",
        "sideBar.foreground": "#000",
        "statusBar.foreground": "#000",
        "tab.activeForeground": "#000",

        "contrastBorder": "#777",
        "focusBorder": "#777",

        "activityBar.activeFocusBorder": "#777",
        "sideBar.border": "#777",
        "sideBarSectionHeader.border": "#777",
        "statusBar.border": "#777",

        "searchEditor.textInputBorder": "#777",
        "titleBar.border": "#777",
        "editorGroupHeader.border": "#777",
        "activityBar.border": "#777",
        "checkbox.border": "#777",
        "dropdown.border": "#777",
        "editorGroup.border": "#777",
        "editorGroupHeader.tabsBorder": "#777",
        "editorWidget.border": "#777",
        "input.border": "#777",
        "inputOption.activeBorder": "#777",
        "menubar.selectionBorder": "#777",
        "menu.border": "#777",
        "menu.selectionBorder": "#777",
        "notificationCenter.border": "#777",
        "notifications.border": "#777",
        "notificationToast.border": "#777",
        "panel.border": "#777",
        "panelInput.border": "#777",
        "settings.checkboxBorder": "#777",
        "settings.dropdownBorder": "#777",
        "settings.dropdownListBorder": "#777",
        "settings.textInputBorder": "#777",
        "tab.activeBorderTop": "#777",
        "tab.border": "#777",
        "tab.unfocusedActiveBorderTop": "#777",

        "gitDecoration.addedResourceForeground": "#385",
        "gitDecoration.conflictingResourceForeground": "#f00",
        "gitDecoration.deletedResourceForeground": "#c00",
        "gitDecoration.ignoredResourceForeground": "#0009",
        "gitDecoration.modifiedResourceForeground": "#750",
        "gitDecoration.untrackedResourceForeground": "#163",
        "gitDecoration.submoduleResourceForeground": "#04a",

        "editorGutter.addedBackground": "#163",
        "editorGutter.deletedBackground": "#c00",
        "editorGutter.modifiedBackground": "#04a",

        "terminal.background": "#fff",
        "terminal.foreground": "#000",
        "terminalCursor.background": "#fff",
        "terminalCursor.foreground": "#000",
        "terminal.ansiBlack": "#eee",
        "terminal.ansiRed": "#c00",
        "terminal.ansiGreen": "#163",
        "terminal.ansiYellow": "#c90",
        "terminal.ansiBlue": "#04a",
        "terminal.ansiMagenta": "#607",
        "terminal.ansiCyan": "#166",
        "terminal.ansiWhite": "#222",
        "terminal.ansiBrightBlack": "#ddd",
        "terminal.ansiBrightRed": "#f00",
        "terminal.ansiBrightGreen": "#385",
        "terminal.ansiBrightYellow": "#da0",
        "terminal.ansiBrightBlue": "#05c",
        "terminal.ansiBrightMagenta": "#80a",
        "terminal.ansiBrightCyan": "#288",
        "terminal.ansiBrightWhite": "#333"
    },
    "tokenColors": [
        {
            "scope": ["invalid"],
            "settings": { "foreground": "#e22", "fontStyle": "bold underline" }
        },
        {
            "scope": ["markup.inserted.diff"],
            "settings": { "foreground": "#163" }
        },
        {
            "scope": ["markup.deleted.diff"],
            "settings": { "foreground": "#c00" }
        },
        {
            "scope": [
                "string",
                "constant",
                "entity.name.import"
            ],
            "settings": { "foreground": "#900" }
        },
        {
            "scope": [
                "meta.paragraph",
                "string.unquoted.argument",
                "constant.other.option",
                "punctuation.definition.logical-expression",
                "punctuation.definition.dictionary",
                "punctuation.definition.array",
                "punctuation.definition.evaluation",
                "meta"
            ],
            "settings": { "foreground": "#000" }
        },
        {
            "scope": [
                "keyword",
                "fenced_code.block.language",
                "punctuation.separator",
                "constant.character.escape",
                "constant.other.placeholder"
            ],
            "settings": { "foreground": "#000" }
        },
        {
            "scope": [
                "entity",
                "storage",
                "support",
                "markup.heading",
                "punctuation.definition.heading",
                "entity.name.section"
            ],
            "settings": { "foreground": "#000" }
        },
        {
            "scope": [
                "variable",
                "entity.name",
                "meta.attribute",
                "markup.inline.raw"
            ],
            "settings": { "foreground": "#000" }
        },
        {
            "scope": [
                "entity.name.function",
                "support.function",
                "meta.function-call",
                "meta.function",
                "entity.name.command"
            ],
            "settings": { "foreground": "#000" }
        },
        {
            "scope": [
                "comment",
                "punctuation.definition.comment"
            ],
            "settings": { "foreground": "#055" }
        },
        { "scope": "markup.underline", "settings": { "fontStyle": "underline" } },
        { "scope": "markup.italic", "settings": { "fontStyle": "italic" } },
        {
            "scope": "keyword.operator",
            "settings": { "fontStyle": "none", "foreground": "#000" }
        },
        {
            "scope": [
                "keyword",
                "strong",
                "emphasis",
                "markup.bold",
                "entity.name.type.org",
                "entity.name.function.org",
                "entity.other.attribute-name.org"
            ],
            "settings": { "fontStyle": "bold" }
        }
    ]
}
